{
  "photos": {
    "page": 1,
    "pages": 8993,
    "perpage": 20,
    "total": "179852",
    "photo": [{
      "id": "37331886885",
      "owner": "49266864@N00",
      "secret": "2061e7d0de",
      "server": "4429",
      "farm": 5,
      "title": "Kitten :)",
      "ispublic": 1,
      "isfriend": 0,
      "isfamily": 0
    }, {
      "id": "37140993666",
      "owner": "148036032@N07",
      "secret": "d764caf28f",
      "server": "4418",
      "farm": 5,
      "title": "Check the cutest kittens: http:\/\/thecaturday.us",
      "ispublic": 1,
      "isfriend": 0,
      "isfamily": 0
    }, {
      "id": "36493899334",
      "owner": "43123905@N06",
      "secret": "190bce766d",
      "server": "4429",
      "farm": 5,
      "title": "2016-06-14-1515",
      "ispublic": 1,
      "isfriend": 0,
      "isfamily": 0
    }, {
      "id": "36934006390",
      "owner": "148036032@N07",
      "secret": "69a96324c5",
      "server": "4426",
      "farm": 5,
      "title": "Photo - The Caturday",
      "ispublic": 1,
      "isfriend": 0,
      "isfamily": 0
    }, {
      "id": "36493799094",
      "owner": "99245765@N00",
      "secret": "82857237c9",
      "server": "4435",
      "farm": 5,
      "title": "Cats Don't Snitch",
      "ispublic": 1,
      "isfriend": 0,
      "isfamily": 0
    }, {
      "id": "36493570064",
      "owner": "148036032@N07",
      "secret": "7df39da746",
      "server": "4410",
      "farm": 5,
      "title": "Loki\u2019s not very good with a camera, but who can blame him? He... - The Caturday",
      "ispublic": 1,
      "isfriend": 0,
      "isfamily": 0
    }, {
      "id": "37140472166",
      "owner": "148036032@N07",
      "secret": "64e549f356",
      "server": "4368",
      "farm": 5,
      "title": "Our new recently adopted cat Jasmine, this picture shows not how... - The Caturday",
      "ispublic": 1,
      "isfriend": 0,
      "isfamily": 0
    }, {
      "id": "36932953350",
      "owner": "38307297@N08",
      "secret": "2fee345bc7",
      "server": "4404",
      "farm": 5,
      "title": "1433-15L",
      "ispublic": 1,
      "isfriend": 0,
      "isfamily": 0
    }, {
      "id": "37139790856",
      "owner": "38307297@N08",
      "secret": "3c7a531a2e",
      "server": "4411",
      "farm": 5,
      "title": "1433-16bwL",
      "ispublic": 1,
      "isfriend": 0,
      "isfamily": 0
    }, {
      "id": "37330511485",
      "owner": "38307297@N08",
      "secret": "00d99b4500",
      "server": "4376",
      "farm": 5,
      "title": "1433-16L",
      "ispublic": 1,
      "isfriend": 0,
      "isfamily": 0
    }, {
      "id": "37187489041",
      "owner": "38307297@N08",
      "secret": "e522a72797",
      "server": "4356",
      "farm": 5,
      "title": "1433-19bwL",
      "ispublic": 1,
      "isfriend": 0,
      "isfamily": 0
    }, {
      "id": "37330380615",
      "owner": "38307297@N08",
      "secret": "63ffdfc90e",
      "server": "4408",
      "farm": 5,
      "title": "1433-19L",
      "ispublic": 1,
      "isfriend": 0,
      "isfamily": 0
    }, {
      "id": "36492985624",
      "owner": "148036032@N07",
      "secret": "4ff09be295",
      "server": "4395",
      "farm": 5,
      "title": "Sammy is a believer - The Caturday",
      "ispublic": 1,
      "isfriend": 0,
      "isfamily": 0
    }, {
      "id": "37330686135",
      "owner": "148036032@N07",
      "secret": "7936103c93",
      "server": "4374",
      "farm": 5,
      "title": "This is my boy Saki. He likes to scratch on everything but the... - The Caturday",
      "ispublic": 1,
      "isfriend": 0,
      "isfamily": 0
    }, {
      "id": "37157811552",
      "owner": "148036032@N07",
      "secret": "e299ba7015",
      "server": "4365",
      "farm": 5,
      "title": "Check the cutest kittens: http:\/\/thecaturday.us",
      "ispublic": 1,
      "isfriend": 0,
      "isfamily": 0
    }, {
      "id": "37187478381",
      "owner": "148036032@N07",
      "secret": "3932e421a3",
      "server": "4428",
      "farm": 5,
      "title": "My two small fluffy babies Salem on the left and Rosemary on the... - The Caturday",
      "ispublic": 1,
      "isfriend": 0,
      "isfamily": 0
    }, {
      "id": "36517132763",
      "owner": "78618238@N04",
      "secret": "d03caec191",
      "server": "4404",
      "farm": 5,
      "title": "Little Mac",
      "ispublic": 1,
      "isfriend": 0,
      "isfamily": 0
    }, {
      "id": "37330116635",
      "owner": "150231034@N03",
      "secret": "d170716c58",
      "server": "4365",
      "farm": 5,
      "title": "Fripouille",
      "ispublic": 1,
      "isfriend": 0,
      "isfamily": 0
    }, {
      "id": "36492153194",
      "owner": "154855803@N05",
      "secret": "322d191a19",
      "server": "4337",
      "farm": 5,
      "title": "Rosie kitty",
      "ispublic": 1,
      "isfriend": 0,
      "isfamily": 0
    }, {
      "id": "36932562480",
      "owner": "150231034@N03",
      "secret": "65d85689ba",
      "server": "4412",
      "farm": 5,
      "title": "Fripouille",
      "ispublic": 1,
      "isfriend": 0,
      "isfamily": 0
    }]
  },
  "stat": "ok"
}